{
  "MLModelVersionStringKey" : "--",
  "MLModelDescriptionKey" : "This is a sentence-transformers model: It maps sentences & paragraphs to a 384 dimensional dense vector space and can be used for tasks like clustering or semantic search.",
  "MLModelCreatorDefinedKey" : {
    "com.github.apple.coremltools.version" : "6.3.0",
    "com.github.apple.coremltools.source" : "torch==2.0.0"
  },
  "MLModelAuthorKey" : "See: https:\/\/huggingface.co\/sentence-transformers\/all-MiniLM-L6-v2",
  "MLModelLicenseKey" : "Apache 2.0"
}